Bayesian Mixture of Experts • bmoe
…
Each components’ distribution is currently limited to (conditionally independent) multiple linear regressions where each response variable can potentially be left-censored.

Worked Example

Simulation

We can simulate data from these models using bmoe::simulate_bmoe().

Alternatively, one can use the example wrapper to utilise default arguments.

example_sim <- bmoe::example_simulate_bmoe()

example_sim$data
#> # A tibble: 180 × 4
#>       y01     x01     x02     x03
#>     <dbl>   <dbl>   <dbl>   <dbl>
#>  1 -4.03  -1.07   -0.0269 -1.03  
#>  2  1.26  -1.36   -1.34    0.901 
#>  3 -4.38   1.37   -2.21   -0.277 
#>  4 -0.490 -0.463   0.0581  0.0647
#>  5 -0.211  0.0454 -0.446  -0.406 
#>  6  7.45   0.456   0.956   0.927 
#>  7  4.92   1.03    1.78    2.56  
#>  8 -0.140 -0.312  -0.428   0.222 
#>  9 -0.162  0.195   0.0182 -0.836 
#> 10  2.69   2.47   -1.46   -0.473 
#> # ℹ 170 more rows
…
